{
  "images" : [
    {
      "idiom" : "universal",
      "filename" : "Capture d’écran 2020-09-24 à 15.43.40.png",
      "scale" : "1x"
    },
    {
      "idiom" : "universal",
      "filename" : "Capture d’écran 2020-09-24 à 15.43.40-1.png",
      "scale" : "2x"
    },
    {
      "idiom" : "universal",
      "filename" : "Capture d’écran 2020-09-24 à 15.43.40-2.png",
      "scale" : "3x"
    }
  ],
  "info" : {
    "version" : 1,
    "author" : "xcode"
  }
}